…
REGIONVARSOM %>% dplyr::select(1:11, 14:15, Symbol, tumor_var_freq) %>% arrange(desc(tumor_var_freq)) %>% filter(tumor_reads2 > 13)

## # A tibble: 220 x 15
##    chrom  position EntrezID Variant_Type Variant_Location patient_id
##    <chr>     <int>    <int>        <chr>            <int>      <chr>
##  1  chrY  22297641       NA         <NA>               NA      P3189
##  2  chrY  12773685     8287       coding             2091       P120
##  3  chr7 100793959     7455       coding             7927      P2112
##  4 chr18  51054861     4089       coding              535      P1634
##  5 chr18   7888275     5797       coding              366      P2112
##  6 chr20  34945933       NA         <NA>               NA      P007A
##  7 chr17  40162130    22794       coding              585      P3405
##  8 chr18   7888275     5797       coding              366      P2112
##  9 chr17  59257307       NA         <NA>               NA      P3405
## 10 chr10  77414011       NA         <NA>               NA      P2765
## # ... with 210 more rows, and 9 more variables: region_id <chr>,
## #   ref <chr>, var <chr>, normal_reads1 <int>, normal_reads2 <int>,
## #   tumor_reads1 <int>, tumor_reads2 <int>, Symbol <chr>,
## #   tumor_var_freq <dbl>
…
